,,,,,
"Keyword: IP & Technology + ICT, Media & Entertainment + Healthcare, Pharma & Life Science",,,,,
,,,,,
Employee,,Email,Country,Position,OT
Albin Hallgren,Roschier ,albin.hallgren@roschier.com,Sweden,Junior Associate,Team Technology
Alexander Thesleff,Roschier ,alexander.thesleff@roschier.com,Finland,Brand protection lawyer,Team Technology
Amanda Engström,Roschier ,amanda.engstrom@roschier.com,Sweden,Junior Associate,Team Technology
Anna Haapanen,Roschier ,anna.haapanen@roschier.com,Finland,Senior Associate,Team Technology
